﻿2940;108;"Тестовая опись номер один";0;"Предлагается призывать молодых россиян не на один год, а на полтора. ";"http://www.itar-tass.com/c12/578452.html";
2941;108;"Тестовая опись номер вторая";0;"Министерство обороны России не работало над изменением сроков военной службы по призыву";"http://www.vz.ru/news/2012/11/22/608377.html";
2942;108;"Тестовая опись номер вторая";0;"Минобороны выделило часть денег на погашение долгов ОАО Ремонтно-эксплуатационное управление ( РЭУ ) ";"http://lenta.ru/news/2012/11/22/reu/";
